5232844900000556 010000950000003 000020000 00001500 0000250 Mastercard 12122022 PROFILE00000001 Test 3 Cop.    1000000000003 5944 010000950000003       CONTACT3         ACCOUNT3         333 Rama 3         Bangkok 3          10300    CUSTOMER0000003 Mss.Sarika Boontanom           0887732121   445  Rama 3  Bangkok 1  10100    5232844900000556 N3        09/27    245           0004500000
5232844900000556 010000950000004 000020000 00001500 0000150 Mastercard 12122022 PROFILE00000001 Test 3 Cop. 02 1000000000004 5944 010000950000003       CONTACT4         ACCOUNT3         444 Rama 3         Bangkok 4          10400    CUSTOMER0000003 Mss.Sarika Boontanom           0887732121   445  Rama 3  Bangkok 1  10100    5232844900000556 N3        09/27    245           0004500000
3565844900000003 010000950000002 000100000 00020000 0000200 JCB        03122022 PROFILE00000001 Test 2 Company 1000000000002 5944 010000950000002       CONTACT2         ACCOUNT2         222 Rama 3         Bangkok 2          10200    CUSTOMER0000003 Mss.Sarika Boontanom           0887732121   445  Rama 3  Bangkok 1  10100    3565844900000003 N3        09/27    667           0004500000
3565844900000003 010000950000003 000100000 00020000 0000200 JCB        04122022 PROFILE00000001 Test 3 Cop.    1000000000003 5944 010000950000003       CONTACT3         ACCOUNT3         333 Rama 3         Bangkok 3          10300    CUSTOMER0000003 Mss.Sarika Boontanom           0887732121   445  Rama 3  Bangkok 1  10100    3565844900000003 N3        09/27    667           0004500000
