REPORT-NO: CR06                              CUSTOMER STATEMENT REPORT                                             DATE : 05/01/2023
PROGRAM  : TRR0006                                                                                                 TIME : 17:29:27
Mr.Somsak Chaisri
099-933-1991
123  Rama 3 Bangkok 1
10100

ACCOUNT SUMMARY
-------------------------------------------------------------------------------------------------------------------------------------
     CARD NUMBER               ACCOUNT NAME                 CREDIT LIMIT                   BALANCE                       MIN PAYMENT
-------------------------------------------------------------------------------------------------------------------------------------
5222-84XX-XXXX-0556          Mr.Somsak Chaisr                     20,000                    200.00                             20.00
4215-84XX-XXXX-0001          Mr.Somsak Chaisr                     50,000                  2,210.00                            221.00
3565-77XX-XXXX-3003          Mr.Somsak Chaisr                     20,000                  2,000.00                            200.00
-------------------------------------------------------------------------------------------------------------------------------------

ACCOUNT DETAIL
-------------------------------------------------------------------------------------------------------------------------------------
       CARD TYPE                                     CARD NUMBER                                          ACCOUNT NAME
-------------------------------------------------------------------------------------------------------------------------------------
          N1                                    5222-84XX-XXXX-0556                                   Mr.Somsak Chaisri
-------------------------------------------------------------------------------------------------------------------------------------
TRAN DATE                  POSTING DATE                                  DESCRPTION                                  AMOUNT  (BAHT)
-------------------------------------------------------------------------------------------------------------------------------------
03/12/22                   05/01/23             Test 2 Company                 Bangkok 2                                     200.00
                                                 ***** TOTAL BALANCE *****                                                   200.00

-------------------------------------------------------------------------------------------------------------------------------------
       CARD TYPE                                     CARD NUMBER                                          ACCOUNT NAME
-------------------------------------------------------------------------------------------------------------------------------------
          P1                                    4215-84XX-XXXX-0001                                   Mr.Somsak Chaisri
-------------------------------------------------------------------------------------------------------------------------------------
TRAN DATE                  POSTING DATE                                  DESCRPTION                                  AMOUNT  (BAHT)
-------------------------------------------------------------------------------------------------------------------------------------
03/12/22                   05/01/23             Test 1 inc.                    Bangkok 1                                     100.00
01/12/22                   05/01/23             Test 1 inc.                    Bangkok 1                                   2,010.00
04/12/22                   05/01/23             Test 2 Company                 Bangkok 2                                     100.00
                                                 ***** TOTAL BALANCE *****                                                 2,210.00

-------------------------------------------------------------------------------------------------------------------------------------
       CARD TYPE                                     CARD NUMBER                                          ACCOUNT NAME
-------------------------------------------------------------------------------------------------------------------------------------
          N1                                    3565-77XX-XXXX-3003                                   Mr.Somsak Chaisri
-------------------------------------------------------------------------------------------------------------------------------------
TRAN DATE                  POSTING DATE                                  DESCRPTION                                  AMOUNT  (BAHT)
-------------------------------------------------------------------------------------------------------------------------------------
14/12/22                   05/01/23             Test 3 Cop. 02                 Bangkok 4                                   1,000.00
14/12/22                   05/01/23             Test 3 Cop. 02                 Bangkok 4                                   1,000.00
                                                 ***** TOTAL BALANCE *****                                                 2,000.00
